{
  "model": "CourseClasses",
  "settings": {
    "i18n": {
      "el": {
        "Course Details": "Στοιχεία Mαθήματος",
        "Course ID": "Κωδικός μαθήματος",
        "Course name": "Τίτλος μαθήματος",
        "Department name": "Ονομασία τμήματος",
        "Class Details": "Στοιχεία Tάξης",
        "Class title": "Τίτλος τάξης",
        "Edit the title of this class. It can differ from academic year to academic year.": "Ορίστε τον τίτλο της τάξης. Μπορεί να διαφέρει από ακαδημαϊκό έτος σε ακαδημαϊκό έτος.",
        "Select the academic period this course class is being taught.": "Επιλέξτε την ακαδημαϊκή περίοδο διδασκαλίας της τάξης αυτής.",
        "Academic year": "Ακαδημαϊκό έτος",
        "Select the academic year this course class is taking place.": "Επιλέξτε το ακαδημαϊκό έτος διδασκαλίας της τάξης αυτής.",
        "Study guide": "Οδηγός σπουδών",        
        "Ε-learning": "E-learning",
        "Please fill the field with a valid URL.":"Συμπληρώστε μια έγκυρη ηλεκτρονική διεύθυνση.",
        "Max number of students": "Μέγιστος αριθμός φοιτητών",
        "Week hours": "Ώρες διδασκαλίας (ανά εβδομάδα)",
        "Set the number of hours this class is being taught per week.": "Ορίστε τον εβδομαδιαίο αριθμό ωρών διδασκαλίας της τάξης.",
        "Total hours": "Ώρες διδασκαλίας (περιόδου)",
        "Must register section": "Υποχρεωτική δήλωση τμήματος τάξης",
        "Select if the course class section registration is mandatory during course class registration": "Επιλέξτε αν η εγγραφή σε τμήμα τάξης είναι υποχρεωτική κατά την δήλωση μαθημάτων.",
        "Absence limit": "Όριο απουσιών",
        "Absence limit must be a positive integer greater than or equal to zero.": "Ο μέγιστος αριθμός απουσιών πρέπει να είναι ακέραιος μεγαλύτερος ή ίσος του μηδενός.",
        "Set the upper limit of absences a student can have in this class. If left blank, no limit will be set.": "Ορίστε τον μέγιστο αριθμό απουσιών που μπορεί να έχει ένας φοιτητής σε αυτή την τάξη. Εάν αφεθεί κενό, δε θα οριστεί κάποιο όριο.",
        "This field must contain only numbers. A value is required.": "Αυτό το πεδίο πρέπει να περιέχει μόνο αριθμούς. Απαιτείται μία τιμή.",
        "Label": "Ετικέτα",
        "The field is informative, use it to distinguish classes": "Το πεδίο είναι πληροφοριακό, χρησιμοποιήστε το για διάκριση των τάξεων",
        "exams": "Εξετάσεις",
        "teaching": "Διδασκαλία",
        "Other Languages": "Άλλες Γλώσσες",
        "This the unique identifier of the course this class will be linked with": "Αυτός είναι ο μοναδικός αναγνωριστικός κωδικός του μαθημάτος με το οποίο θα συνδεθεί η τάξη αυτή",
        "Set the title of this class. It can differ from academic year to academic year.": "Ορίστε τον τίτλο της τάξης. Μπορεί να διαφέρει από ακαδημαϊκό έτος σε ακαδημαϊκό έτος.",
        "Select the academic period this course class will be taught.": "Επιλέξτε την ακαδημαϊκή περίοδο διδασκαλίας της τάξης αυτής.",
        "Select the academic year this course class will be taught.": "Επιλέξτε το ακαδημαϊκό έτος διδασκαλίας της τάξης αυτής.",
        "Set the maximum number of students that can be enrolled in this class. If left blank, no limit will be set.": "Ορίστε το μεγιστό αριθμό φοιτητών που μπορούν να εγγραφούν στην τάξης. Εάν αφεθεί κενό, δε θα οριστεί κάποιο όριο.",
        "Set the number of hours this class will be taught per week.": "Ορίστε τον εβδομαδιαίο αριθμό ωρών διδασκαλίας της τάξης αυτής.",
        "Set the total number of hours this class will be taught in the selected academic period": "Ορίστε τον αριθμό ωρών διδασκαλίας της τάξης αυτής την επιλεγμένη ακαδημαϊκή περίοδο"
      }
    }
  },
  "components": [
    {
      "type": "fieldset",
      "components": [
        {
          "customClass": "text-dark",
          "hideLabel": true,
          "type": "columns",
          "input": false,
          "columns": [
            {
              "components": [
                {
                  "label": "Course ID",
                  "labelPosition": "top",
                  "disabled": true,
                  "widget": {
                    "type": "input"
                  },
                  "validate": {
                    "required": false
                  },
                  "key": "course.id",
                  "type": "textfield",
                  "input": true,
                  "hidden": true,
                  "description": "This the unique identifier of the course this class will be linked with"
                }
              ],
              "width": 0
            },
            {
              "components": [
                {
                  "label": "Department name",
                  "labelPosition": "top",
                  "widget": "choicesjs",
                  "dataSrc": "url",
                  "data": {
                    "url": "LocalDepartments",
                    "headers": []
                  },
                  "searchFields": [
                    "value.id",
                    "value.alternateName"
                  ],
                  "template": "<span class='d-block pr-5 text-truncate'>{{ item.name }}</span>",
                  "selectValues": "value",
                  "disabled": true,
                  "hidden": true,
                  "key": "department",
                  "valueProperty": "id",
                  "customDefaultValue": "value =data.course.department;",
                  "lazyLoad": false,
                  "type": "select",
                  "input": true,
                  "validate": {
                    "required": true
                  }
                }
              ],
              "width": 5
            }
          ]
        }
      ]
    },
    {
      "type": "fieldset",
      "legend": "Class Details",
      "components": [
        {
          "customClass": "text-dark",
          "hideLabel": true,
          "type": "columns",
          "input": false,
          "columns": [
            {
              "components": [
                {
                  "label": "Class title",
                  "labelPosition": "top",
                  "widget": {
                    "type": "input"
                  },
                  "validate": {
                    "required": true
                  },
                  "key": "title",
                  "type": "textfield",
                  "input": true,
                  "description": "Set the title of this class. It can differ from academic year to academic year."
                }
              ],
              "width": 12
            },
            {
              "components": [
                {
                  "label": "Period",
                  "labelPosition": "top",
                  "widget": "choicesjs",
                  "dataSrc": "url",
                  "data": {
                    "url": "AcademicPeriods",
                    "headers": []
                  },
                  "searchFields": [
                    "value.id",
                    "value.alternateName"
                  ],
                  "template": "<span class='d-block pr-5 text-truncate'>{{ item.name }}</span>",
                  "selectValues": "value",
                  "key": "period.id",
                  "valueProperty": "id",
                  "lazyLoad": false,
                  "type": "select",
                  "input": true,
                  "validate": {
                    "required": true
                  },
                  "description": "Select the academic period this course class will be taught."
                }
              ],
              "width": 2
            },
            {
              "components": [
                {
                  "label": "Academic year",
                  "labelPosition": "top",
                  "widget": "choicesjs",
                  "dataSrc": "url",
                  "data": {
                    "url": "AcademicYears?$orderby=id desc",
                    "headers": []
                  },
                  "searchFields": [
                    "value.id",
                    "value.alternateName"
                  ],
                  "template": "<span class='d-block pr-5 text-truncate'>{{ item.alternateName }}</span>",
                  "selectValues": "value",
                  "key": "year.id",
                  "valueProperty": "id",
                  "lazyLoad": false,
                  "type": "select",
                  "input": true,
                  "validate": {
                    "required": true
                  },
                  "description": "Select the academic year this course class will be taught."
                }
              ],
              "width": 3
            }
          ]
        }
      ]
    },
    {
      "type": "fieldset",
      "legend": "Teaching Details",
      "components": [
        {
          "customClass": "text-dark",
          "hideLabel": true,
          "type": "columns",
          "input": false,
          "columns": [
            {
              "components": [
                {
                  "label": "Max number of students",
                  "labelPosition": "top",
                  "widget": {
                    "type": "input"
                  },
                  "validate": {
                    "required": false,
                    "integer": true
                  },
                  "key": "maxNumberOfStudents",
                  "type": "number",
                  "input": true,
                  "description": "Set the maximum number of students that can be enrolled in this class. If left blank, no limit will be set."
                }
              ],
              "width": 4
            },
            {
              "components": [
                {
                  "label": "Week hours",
                  "labelPosition": "top",
                  "widget": {
                    "type": "input"
                  },
                  "validate": {
                    "required": false,
                    "integer": true
                  },
                  "key": "weekHours",
                  "type": "number",
                  "input": true,
                  "description": "Set the number of hours this class will be taught per week."
                }
              ],
              "width": 4
            },
            {
              "components": [
                {
                  "label": "Total hours",
                  "labelPosition": "top",
                  "widget": {
                    "type": "input"
                  },
                  "validate": {
                    "required": false,
                    "integer": true
                  },
                  "key": "totalHours",
                  "type": "number",
                  "input": true,
                  "description": "Set the total number of hours this class will be taught in the selected academic period"
                }
              ],
              "width": 4
            },
            {
              "components": [
                {
                  "label": "Language of instruction",
                  "labelPosition": "top",
                  "data": {
                    "values": [
                      {
                        "label": "Ελληνικά",
                        "value": "el"
                      },
                      {
                        "label": "English",
                        "value": "en"
                      },
                      {
                        "label": "Deutsch",
                        "value": "de"
                      },
                      {
                        "label": "Français",
                        "value": "fr"
                      },
                      {
                        "label": "Italiano",
                        "value": "it"
                      },
                      {
                        "label": "Español",
                        "value": "es"
                      },
                      {
                        "label": "Русский",
                        "value": "ru"
                      }
                    ]
                  },
                  "widget": "choicesjs",
                  "validate": {
                    "required": false
                  },
                  "key": "statistic.inLanguage",
                  "type": "select",
                  "searchEnabled": false,
                  "input": true,
                  "description": "Set a Language that is going to be used by the element"
                }
              ],
              "width": 4
            }
          ]
        }
      ]
    },
    {
      "type": "button",
      "label": "Submit",
      "key": "submit",
      "disableOnInvalid": true,
      "input": true
    }
  ]
}
