{
    "model": "CourseExamParticipateActions",
    "title": "Exam Students",
    "searchExpression": "indexof(student/studentIdentifier, '${text}') ge 0 or indexof(student/person/familyName, '${text}') ge 0 or indexof(student/studyProgram/abbreviation, '${text}') ge 0 )",
    "columns": [
      {
        "name": "id",
        "property": "id",
        "hidden": true
      },
      {
        "name": "student/id",
        "property": "student",
        "formatter": "ActionLinkFormatter",
        "actions": [
          {
            "title": "Exams.Preview",
            "href": "#/students/${student}/dashboard/overview"
          }
        ]
      },
      {
        "name": "student/studentIdentifier",
        "property": "studentIdentifier",
        "title": "Students.studentIdentifier"
      },
      {
        "name": "student/person/familyName",
        "property": "familyName",
        "title": "Students.fullName",
        "formatter": "TemplateFormatter",
        "formatString": "${familyName} ${givenName}"
      },
      {
        "name": "student/person/givenName",
        "property": "givenName",
        "title": "Students.GivenName",
        "hidden": true
      },
      {
        "name": "student/studyProgram/abbreviation",
        "property": "studyProgram",
        "title": "Students.studyProgram"
      },
      {
        "name": "student/semester",
        "property": "semester",
        "title": "Students.semester"
      },
      {
        "name": "student/inscriptionYear/alternateName",
        "property": "inscriptionYear",
        "title": "Students.inscriptionYear"
      },
      {
        "name": "student/inscriptionPeriod/name",
        "property": "inscriptionPeriod",
        "title": "Students.inscriptionPeriod"
      },
      {
        "name": "student/studentStatus/alternateName",
        "property": "studentStatus",
        "title": "Students.Status",
        "formatter": "TranslationFormatter",
        "formatString": "StudentStatuses.${value}"
      },
      {
        "name": "agree",
        "property": "agree",
        "title": "Exams.AgreeTitle",
        "formatter": "TrueFalseFormatter"
      }
    ],
    "criteria": [
      {
        "name": "examId",
        "filter": "(courseExam eq '${value}')",
        "type": "text"
      },
      {
        "name": "studyProgram",
        "filter": "(student/studyProgram/id eq '${value}')",
        "type": "text"
      },
      {
        "name": "familyName",
        "filter": "(indexof(student/person/familyName, '${value}') ge 0)",
        "type": "text"
      },
      {
        "name": "studentStatus",
        "filter": "(student/studentStatus/alternateName eq '${value}')",
        "type": "text"
      },
      {
        "name": "inscriptionYear",
        "filter": "(student/inscriptionYear/name eq '${value}')",
        "type": "text"
      },
      {
        "name": "inscriptionPeriod",
        "filter": "(student/inscriptionPeriod/alternateName eq '${value}')",
        "type": "text"
      },
      {
        "name": "semester",
        "filter": "(student/semester eq '${value}')",
        "type": "text"
      },
      {
        "name": "agree",
        "filter": "(agree eq '${value}')",
        "type": "text"
      }
    ]
  }

