{
  "title": "Courses.IsEnabledPlural.0",
  "model": "Courses",
  "searchExpression":"(indexof(name, '${text}') ge 0 or indexof(displayCode, '${text}') ge 0 or indexof(department/abbreviation, '${text}') ge 0 or indexof(department/name, '${text}') ge 0 or indexof(courseArea/name, '${text}') ge 0 or indexof(courseCategory/name, '${text}') ge 0)",
  "selectable": true,
  "multipleSelect": true,
  "columns": [
    {
      "name":"id",
      "property": "id",
      "placeholder": "Courses.Actions",
      "formatter": "ActionLinkFormatter",
      "actions" : [
        {
          "title": "Courses.Preview",
          "href": "#/courses/${encodeURIComponent(id)}/"
        },
        {
          "title": "Courses.Edit",
          "href": "#/courses/${encodeURIComponent(id)}/edit"
        }
      ]
    },
    {
      "name":"displayCode",
      "property": "displayCode",
      "title":"Courses.DisplayCode"
    },
    {
      "name":"name",
      "property": "name",
      "title":"Courses.name"
    },
    {
      "name":"department/abbreviation",
      "property": "departmentName",
      "title":"Courses.Department"
    },
    {
      "name":"courseArea/name",
      "property": "courseArea",
      "title":"Courses.courseArea"
    },
    {
      "name":"courseSector/name",
      "property": "courseSector",
      "title":"Courses.courseSector"
    },
    {
      "name":"courseCategory/name",
      "property": "courseCategory",
      "title":"Courses.courseCategory"
    },
    {
      "name":"replacedByCourse/displayCode",
      "property": "replacedByCourseDC",
      "title": "Courses.replacedByDisplayCode",
      "hidden": true
    },
    {
      "name":"replacedByCourse/name",
      "property": "replacedByCourseName",
      "title":"Courses.replacedByCourse",
      "className": "text-center",
      "formatter": "TemplateFormatter",
      "formatString": "${replacedByCourseDC} - ${replacedByCourseName}"
    },
    {
      "name":"courseStructureType",
      "property": "courseStructureType",
      "title": "Courses.courseStructureTypeId",
      "hidden": true
    },
    {
      "name":"courseStructureType/name",
      "property": "courseStructureTypeName",
      "title": "Courses.courseStructureType",
      "formatter": "TranslationFormatter",
      "formatString": "Courses.CourseType.${value}",
      "hidden": true,
      "optional": true
    },
    {
      "name": "subtitle",
      "property": "subtitle",
      "title": "Courses.subtitle",
      "hidden": true,
      "optional": true
    },
    {
      "name": "isShared",
      "property": "isShared",
      "title": "Courses.Shared",
      "formatter": "TrueFalseFormatter",
      "hidden": true,
      "optional": true
    },
    {
      "name": "isCalculatedInScholarship",
      "property": "isCalculatedInScholarship",
      "title": "Courses.isCalculatedInScholarship",
      "formatter": "TrueFalseFormatter",
      "hidden": true,
      "optional": true
    },
    {
      "name": "units",
      "property": "units",
      "title": "Courses.units",
      "hidden": true,
      "optional": true
    },
    {
      "name": "ects",
      "property": "ects",
      "title": "Courses.ects",
      "hidden": true,
      "optional": true
    },
    {
      "name": "notes",
      "property": "notes",
      "title": "Courses.notes",
      "hidden": true,
      "optional": true
    },
    {
      "name": "replacedCourse",
      "property": "replacedCourse",
      "title": "Courses.replacedCourse",
      "hidden": true,
      "optional": true
    },
    {
      "name": "maxNumberOfRemarking",
      "property": "maxNumberOfRemarking",
      "title": "Courses.maxNumberOfRemarking",
      "hidden": true,
      "optional": true
    },
    {
      "name": "coursePartPercent",
      "property": "coursePartPercent",
      "title": "Forms.CoursePartPercent",
      "hidden": true,
      "optional": true
    },
    {
      "name": "isLocal",
      "property": "isLocal",
      "title": "Courses.isLocal",
      "formatter": "TrueFalseFormatter",
      "hidden": true,
      "optional": true
    },
    {
      "name": "calculatedInRegistration",
      "property": "calculatedInRegistration",
      "title": "Courses.calculatedInRegistration",
      "formatter": "TrueFalseFormatter",
      "hidden": true,
      "optional": true
    },
    {
      "name": "parentCourse/displayCode",
      "property": "parentCourse",
      "title": "Courses.ParentCourse",
      "hidden": true,
      "optional": true
    }
  ],
  "defaults":{
    "filter": "(department eq ${currentDepartment} and isEnabled eq 0)"
  },
  "criteria": [
    {
      "name": "name",
      "filter": "(indexof(name, '${value}') ge 0)",
      "type": "text"
    },
    {
      "name": "displayCode",
      "filter": "(indexof(displayCode, '${value}') ge 0)",
      "type": "text"
    },
    {
      "name": "courseStructureType",
      "filter": "(courseStructureType/id eq '${value}')",
      "type": "text"
    },
    {
      "name": "courseSector",
      "filter": "(courseSector/id eq '${value}')",
      "type": "text"
    },
    {
      "name": "courseCategory",
      "filter": "(courseCategory/id eq '${value}')",
      "type": "text"
    },
    {
      "name": "instructor",
      "filter": "(instructor/id eq '${value.id}')",
      "type": "text"
    },
    {
      "name": "courseArea",
      "filter": "(courseArea/id eq '${value}')",
      "type": "text"
    }
  ],
  "paths" : [
    {
      "name": "Courses.All",
      "alternateName": "list",
      "show": true,
      "filter": {
        "status": "0"
      }
    },
    {
      "name": "Courses.IsEnabledPlural.0",
      "alternateName": "deactiveCourse",
      "show": true,
      "filter": {
        "status": "0"
      }
    },
    {
      "name": "Courses.IsEnabledPlural.1",
      "alternateName": "activeCourse",
      "show": true,
      "filter": {
        "status": "1"
      }
    }
  ]
}
