{
  "model": "StudentPeriodRegistrations",
  "title": "Change period registration type",
  "settings": {
    "i18n": {
      "el": {
        "Period registration type": "Τύπος εγγραφής περιόδου",
        "Please select a period registration type": "Παρακαλώ επιλέξτε τύπο εγγραφής περιόδου."
      }
    }
  },
  "components": [
    {
      "key": "fieldset",
      "type": "fieldset",
      "input": false,
      "components": [
        {
          "columns": [
            {
              "components": [
                {
                  "label": "Period registration type",
                  "widget": "choicesjs",
                  "dataSrc": "url",
                  "defaultValue": "",
                  "labelPosition": "top",
                  "data": {
                    "values": [],
                    "url": "/PeriodRegistrationTypes?$select=id,alternateName,name",
                    "headers": []
                  },
                  "lazyLoad": true,
                  "searchField": "search",
                  "searchEnabled": true,
                  "selectThreshold": 0.3,
                  "limit": 50,
                  "validate": {
                    "required": true
                  },
                  "valueProperty": "id",
                  "template": "{{ item.name }}",
                  "key": "registrationType",
                  "dataType": "object",
                  "idPath": "id",
                  "type": "select",
                  "selectValues": "value",
                  "input": true,
                  "description": "Please select a period registration type"
                }
              ],
              "width": 12
            }
          ],
          "customClass": "text-dark",
          "type": "columns",
          "input": false
        }
      ]
    }
  ]
}
