{
  "title": "Students.All",
  "model": "Students",
  "searchExpression":"indexof(studentIdentifier, '${text}') ge 0 or indexof(person/familyName, '${text}') ge 0 or indexof(person/givenName, '${text}') ge 0 or indexof(user/name, '${text}') ge 0 or indexof(studyProgram/name, '${text}') ge 0 or indexof(studentStatus/name, '${text}') ge 0 or indexof(uniqueIdentifier, '${text}') ge 0",
  "selectable": true,
  "multipleSelect": true,
  "columns": [
    {
      "name":"id",
      "placeholder": "Tables.ActionLinkColumn",
      "property": "id",
      "formatter": "ActionLinkFormatter",
      "actions" : [
        {
          "title": "Students.Preview",
          "href": "#/students/${id}/dashboard",
          "role": "preview"
        },
        {
          "title": "Students.PreviewStudyProgram",
          "href": "#/study-programs/${studyProgramId}/preview/general",
          "role": "action"
        },
        {
          "title": "Students.PreviewStudentCourses",
          "href": "#/students/${id}/dashboard/courses",
          "role": "action"
        },
        {
          "title": "Students.Edit",
          "href": "#/students/${id}/edit",
          "access":[
            {
              "studentStatuses": [
                {"alternateName" : "active"}
              ]
            }
          ],
          "role": "edit"
        },
        {
          "title": "Students.SuspendRequest",
          "href": "#/students/${id}/dashboard/overview/(modal:/suspend-request)",
          "access":[
            {
              "studentStatuses": [
                {"alternateName" : "active"}
              ]
            }
          ],
          "role": "action"
        },
        {
          "title": "Students.PartTimeRequest",
          "href": "#/students/${id}/dashboard/overview/(modal:/part-time-request)",
          "access":[
            {
              "studentStatuses": [
                {"alternateName" : "active"}
              ]
            }
          ],
          "role": "action"
        },
        {
          "title": "Reports.Print",
          "href": "#/students/${id}/dashboard/overview/(modal:print)",
          "role": "action"
        },
        {
          "title": "Students.NewInternship",
          "href": "#/students/${id}/dashboard/overview/(modal:/internship/new)",
          "access":[
            {
              "studentStatuses": [
                {"alternateName" : "active"}
              ]
            }
          ],
          "role": "action"
        },
        {
          "title": "Students.RequestDocument",
          "href": "#/students/${id}/dashboard/overview/(modal:/new-request-document)",
          "role": "action"
        },
        {
          "title": "Students.AddProgramGroupAction.Title",
          "href": "#/students/${id}/dashboard/overview/(modal:/add-program-group)",
          "access":[
            {
              "studentStatuses": [
                {"alternateName" : "active"}
              ]
            }
          ],
          "role": "action"
        },
        {
          "title": "Students.StudentGradeRemarkAction.Title",
          "href": "#/students/${id}/dashboard/grades/(modal:/add-grade-remark)",
          "access":[
            {
              "studentStatuses": [
                {"alternateName" : "active"}
              ]
            }
          ],
          "role": "action"
        },
        {
          "title": "Students.CompleteDeclaration",
          "invoke": "completeDeclaration",
          "click": "",
          "access":[
            {
              "studentStatuses": [
                {"alternateName" : "declared"}
              ]
            }
          ],
          "role": "method"
        },
        {
          "title": "Students.CancelDeclaration",
          "invoke": "cancelDeclaration",
          "click": "",
          "access":[
            {
              "studentStatuses": [
                {"alternateName" : "declared"}
              ]
            }
          ],
          "role": "method"
        },
        {
          "title": "Students.CancelGraduation",
          "invoke": "cancelGraduation",
          "click": "",
          "access":[
            {
              "studentStatuses": [
                {"alternateName" : "graduated"}
              ]
            }
          ],
          "role": "method"
        },
        {
          "title": "Students.CalculateSemester",
          "invoke": "calculateSemester",
          "click": "",
          "access":[
            {
              "studentStatuses": [
                {"alternateName" : "graduated"},
                {"alternateName" : "erased"},
                {"alternateName" : "declared"},
                {"alternateName" : "active"}
              ]
            }
          ],
          "role": "method"
        },
        {
          "title": "DataAvailabilityAttributes.Validation.Search",
          "href": "#/departments/configuration/dataAvailability/validate?student=${id}",
          "access":[
            {
              "studentStatuses": [
                {"alternateName" : "graduated"}
              ]
            }
          ],
          "role": "action"
        },
        {
          "title": "Students.AssignUserAction.Title",
          "href": "#/students/${id}/dashboard/overview/(modal:assign-user)",
          "role": "action"
        }
      ]
    },
    {
      "name":"studyProgram",
      "property": "studyProgramId",
      "title": "Students.studyProgramId",
      "hidden": true
    },
    {
      "name":"studyProgramSpecialty",
      "property": "studyProgramSpecialtyId",
      "title": "Students.SpecialtyId",
      "hidden": true
    },
    {
      "name":"studentIdentifier",
      "property": "studentIdentifier",
      "title":"Students.studentIdentifier"
    },
    {
      "name": "person/familyName",
      "property": "familyName",
      "title": "Students.FamilyName",
      "hidden": true
    },
    {
      "name": "person/givenName",
      "property": "givenName",
      "title": "Students.GivenName",
      "hidden": true
    },
    {
      "name": "person/familyName",
      "property": "fullName",
      "title": "Students.fullName",
      "formatter": "TemplateFormatter",
      "formatString": "${familyName} ${givenName}"
    },
    {
      "name":"studyProgram/abbreviation",
      "property": "studyProgram",
      "title":"Students.studyProgram"
    },
    {
      "name":"studyProgramSpecialty/abbreviation",
      "property": "studyProgramSpecialty",
      "title":"Students.Specialty"
    },
    {
      "name":"semester",
      "property": "semester",
      "title":"Students.semester"
    },
    {
      "name":"inscriptionYear/alternateName",
      "property": "inscriptionYear",
      "title":"Students.inscriptionYear"
    },
    {
      "name":"inscriptionPeriod/alternateName",
      "property": "inscriptionPeriod",
      "title":"Students.inscriptionPeriod",
      "formatter": "TranslationFormatter",
      "formatString": "Periods.${value}"
    },
    {
      "name":"studentStatus/alternateName",
      "property": "studentStatus",
      "title":"Students.Status",
      "formatter": "TranslationFormatter",
      "formatString": "StudentStatuses.${value}"
    },
    {
      "name": "user/name",
      "property": "username",
      "title": "Students.UserName"
    },
    {
      "name": "user",
      "property": "user",
      "title": "Students.User",
      "hidden": true
    },
    {
      "name": "studentInstituteIdentifier",
      "property": "studentInstituteIdentifier",
      "title": "Students.studentInstituteIdentifier",
      "hidden": true,
      "optional": true
    },
    {
      "name": "schoolGraduated",
      "property": "schoolGraduated",
      "title": "Students.SchoolGraduated",
      "hidden": true,
      "optional": true
    },
    {
      "name": "schoolGraduatedYear",
      "property": "schoolGraduatedYear",
      "title": "Students.SchoolGraduatedYear",
      "hidden": true,
      "optional": true
    },
    {
      "name": "inscriptionNumber",
      "property": "inscriptionNumber",
      "title": "Students.InscriptionNumber",
      "hidden": true,
      "optional": true
    },
    {
      "name": "schoolGraduationNumber",
      "property": "schoolGraduationNumber",
      "title": "Students.SchoolGraduationNumber",
      "hidden": true,
      "optional": true
    },
    {
      "name": "inscriptionIndex",
      "property": "inscriptionIndex",
      "title": "Students.InscriptionIndex",
      "hidden": true,
      "optional": true
    },
    {
      "name": "schoolGraduationGrade",
      "property": "schoolGraduationGrade",
      "title": "Students.SchoolGraduationGrade",
      "hidden": true,
      "optional": true
    },
    {
      "name": "inscriptionDate",
      "property": "inscriptionDate",
      "title": "Students.InscriptionDate",
      "formatter": "DateTimeFormatter",
      "formatString": "shortDate",
      "hidden": true,
      "optional": true
    },
    {
      "name": "inscriptionDepartment",
      "property": "inscriptionDepartment",
      "title": "Students.InscriptionDepartment",
      "hidden": true,
      "optional": true
    },
    {
      "name": "inscriptionComments",
      "property": "inscriptionComments",
      "title": "Students.InscriptionComments",
      "hidden": true,
      "optional": true
    },
    {
      "name": "inscriptionDecision",
      "property": "inscriptionDecision",
      "title": "Students.InscriptionDecision",
      "hidden": true,
      "optional": true
    },
    {
      "name": "inscriptionPoints",
      "property": "inscriptionPoints",
      "title": "Students.InscriptionPoints",
      "hidden": true,
      "optional": true
    },
    {
      "name": "declaredDate",
      "property": "declaredDate",
      "title": "Students.DeclaredDate",
      "formatter": "DateTimeFormatter",
      "formatString": "shortDate",
      "hidden": true,
      "optional": true
    },
    {
      "name": "graduationDate",
      "property": "graduationDate",
      "title": "Students.GraduationDate",
      "formatter": "DateTimeFormatter",
      "formatString": "shortDate",
      "hidden": true,
      "optional": true
    },
    {
      "name": "graduationGrade",
      "property": "graduationGrade",
      "title": "StudentColumns.graduationGrade",
      "hidden": true,
      "optional": true
    },
    {
      "name": "graduationTitle",
      "property": "graduationTitle",
      "title": "Students.GraduationTitle",
      "hidden": true,
      "optional": true
    },
    {
      "name": "graduationGradeWrittenInWords",
      "property": "graduationGradeWrittenInWords",
      "title": "Students.GraduationGradeWrittenInWords",
      "hidden": true,
      "optional": true
    },
    {
      "name": "graduationNumber",
      "property": "graduationNumber",
      "title": "Students.GraduationNumber",
      "hidden": true,
      "optional": true
    },
    {
      "name": "lastObligationDate",
      "property": "lastObligationDate",
      "title": "Students.LastObligationDate",
      "formatter": "DateTimeFormatter",
      "formatString": "shortDate",
      "hidden": true,
      "optional": true
    },
    {
      "name": "graduationRankByInscriptionYear",
      "property": "graduationRankByInscriptionYear",
      "title": "Students.GraduationRankByInscriptionYear",
      "hidden": true,
      "optional": true
    },
    {
      "name": "graduationRankByGraduationYear",
      "property": "graduationRankByGraduationYear",
      "title": "Students.GraduationRankByGraduationYear",
      "hidden": true,
      "optional": true
    },
    {
      "name": "removalDate",
      "property": "removalDate",
      "title": "Students.RemovalDate",
      "formatter": "DateTimeFormatter",
      "formatString": "shortDate",
      "hidden": true,
      "optional": true
    },
    {
      "name": "removalRequest",
      "property": "removalRequest",
      "title": "Students.RemovalRequest",
      "hidden": true,
      "optional": true
    },
    {
      "name": "removalReason",
      "property": "removalReason",
      "title": "Students.RemovalReason",
      "hidden": true,
      "optional": true
    },
    {
      "name": "removalDecision",
      "property": "removalDecision",
      "title": "Students.RemovalDecision",
      "hidden": true,
      "optional": true
    },
    {
      "name": "removalDepartment",
      "property": "removalDepartment",
      "title": "Students.RemovalDepartment",
      "hidden": true,
      "optional": true
    },
    {
      "name": "removalNumber",
      "property": "removalNumber",
      "title": "Students.RemovalNumber",
      "hidden": true,
      "optional": true
    },
    {
      "name": "removalComments",
      "property": "removalComments",
      "title": "Students.RemovalComments",
      "hidden": true,
      "optional": true
    },
    {
      "name": "comments",
      "property": "comments",
      "title": "Students.Comments",
      "hidden": true,
      "optional": true
    },
    {
      "name": "uniqueIdentifier",
      "property": "uniqueIdentifier",
      "title": "Students.uniqueIdentifier",
      "hidden": true,
      "optional": true
    },
    {
      "name": "rate",
      "property": "rate",
      "title": "Students.Rate",
      "hidden": true,
      "optional": true
    },
    {
      "name": "person/fatherName",
      "property": "fatherName",
      "title": "Students.FatherName",
      "hidden": true,
      "optional": true
    },
    {
      "name": "person/motherName",
      "property": "motherName",
      "title": "Students.MotherName",
      "hidden": true,
      "optional": true
    },
    {
      "name": "person/identityCard",
      "property": "identityCard",
      "title": "Students.IdentityCard",
      "hidden": true,
      "optional": true
    },
    {
      "name": "person/email",
      "property": "email",
      "title": "Students.Email",
      "hidden": true,
      "optional": true
    },
    {
      "name": "person/homeAddress",
      "property": "homeAddress",
      "title": "Students.HomeAddress",
      "hidden": true,
      "optional": true
    },
    {
      "name": "person/homeCity",
      "property": "homeCity",
      "title": "Students.HomeCity",
      "hidden": true,
      "optional": true
    },
    {
      "name": "person/homeCountry",
      "property": "homeCountry",
      "title": "Students.HomeCountry",
      "hidden": true,
      "optional": true
    },
    {
      "name": "person/homePhone",
      "property": "homePhone",
      "title": "Students.HomePhone",
      "hidden": true,
      "optional": true
    },
    {
      "name": "person/temporaryAddress",
      "property": "temporaryAddress",
      "title": "Students.TemporaryAddress",
      "hidden": true,
      "optional": true
    },
    {
      "name": "person/temporaryCity",
      "property": "temporaryCity",
      "title": "Students.TemporaryCity",
      "hidden": true,
      "optional": true
    },
    {
      "name": "person/temporaryCountry",
      "property": "temporaryCountry",
      "title": "Students.TemporaryCountry",
      "hidden": true,
      "optional": true
    },
    {
      "name": "person/temporaryPhone",
      "property": "temporaryPhone",
      "title": "Students.TemporaryPhone",
      "hidden": true,
      "optional": true
    },
    {
      "name": "person/SSN",
      "property": "SSN",
      "title": "Students.SSN",
      "hidden": true,
      "optional": true
    },
    {
      "name": "person/insuranceNumber",
      "property": "insuranceNumber",
      "title": "Students.InsuranceNumber",
      "hidden": true,
      "optional": true
    },
    {
      "name": "person/mobilePhone",
      "property": "mobilePhone",
      "title": "Students.MobilePhone",
      "hidden": true,
      "optional": true
    },
    {
      "name": "person/gender/alternateName",
      "property": "gender",
      "title": "Students.Gender",
      "formatter": "TranslationFormatter",
      "formatString": "Genders.${value}",
      "hidden": true,
      "optional": true
    },
    {
      "name": "person/vatNumber",
      "property": "vatNumber",
      "title": "Students.VatNumber",
      "hidden": true,
      "optional": true
    },
    {
      "name": "person/birthDate",
      "property": "birthDate",
      "title": "Students.BirthDate",
      "formatter": "DateTimeFormatter",
      "formatString": "shortDate",
      "hidden": true,
      "optional": true
    },
    {
      "name": "person/birthPlace",
      "property": "birthPlace",
      "title": "Students.BirthPlace",
      "hidden": true,
      "optional": true
    },
    {
      "name": "militaryStatus/name",
      "property": "militaryStatus",
      "title": "Students.MilitaryStatus",
      "hidden": true,
      "optional": true
    }
  ],
  "criteria": [
    {
      "name": "studentIdentifier",
      "filter": "(studentIdentifier eq '${value}')",
      "type": "text"
    },
    {
      "name": "studentName",
      "filter": "(indexof(person/familyName, '${value}') ge 0 or indexof(person/givenName, '${value}') ge 0)",
      "type": "text"
    },
    {
      "name": "username",
      "filter": "(indexof(user/name, '${value}') ge 0)",
      "type": "text"
    },
    {
      "name": "studyProgram",
      "filter": "(studyProgram eq ${value})",
      "type": "text"
    },
    {
    "name": "studyProgramSpecialty",
    "filter": "(studyProgramSpecialty eq '${value.id}')",
    "type": "text"
    },
    {
      "name": "studentStatus",
      "filter": "(studentStatus/alternateName eq '${value}')",
      "type": "text"
    },
    {
      "name": "inscriptionMode",
      "filter": "(inscriptionMode/id eq '${value}')",
      "type": "text"
    },
    {
      "name": "graduated",
      "filter": "studentStatus/alternateName eq 'graduated'",
      "type": "text"
    },
    {
      "name": "active",
      "filter": "studentStatus/alternateName eq 'active'",
      "type": "text"
    },
    {
      "name": "inscriptionYear",
      "filter": "(inscriptionYear/id eq '${value}')",
      "type": "text"
    },
    {
      "name": "inscriptionPeriod",
      "filter": "(inscriptionPeriod/id eq '${value}')",
      "type": "text"
    },
    {
      "name": "semester",
      "filter": "(semester eq '${value}')",
      "type": "text"
    },
    {
      "name": "hasUser",
      "filter": "${value >=1 ? '(user ne null)': '(user eq null)'}",
      "type": "text"
    }
  ],
  "searches": [
    {
      "name": "AdvancedSearch.PreDefinedLists.graduatedStudents",
      "filter": {
        "graduated": true
      }
    },
    {
      "name": "AdvancedSearch.PreDefinedLists.activeStudents",
      "filter": {
        "active": true
      }
    }
  ],
  "defaults":{
    "filter": "(department eq ${currentDepartment})",
    "expand": "studentSeries"
  },
  "paths" : [
    {
      "name": "Students.Active",
      "alternateName": "list/active",
      "show": true,
      "filter": {
        "status": "active"
      }
    },
    {
      "name": "Students.All",
      "show": true,
      "alternateName": "list/index",
      "filter": {
      }
    },
    {
      "name": "Students.FirstYear",
      "alternateName": "list/first-year",
      "filter": {
        "firstYearStudents": true
      }
    },
    {
      "name": "Students.Candidates",
      "alternateName": "list/candidates",
      "filter": {
        "status": "candidate"
      }
    },
    {
      "name": "Students.Declared",
      "alternateName": "list/declared",
      "filter": {
        "status": "declared"
      }
    },
    {
      "name": "Students.Graduated",
      "alternateName": "list/graduated",
      "filter": {
        "status": "graduated"
      }
    },
    {
      "name": "Students.Suspended",
      "alternateName": "list/suspended",
      "filter": {
        "status": "suspended"
      }
    },
    {
      "name": "Students.Removed",
      "alternateName": "list/removed",
      "filter": {
        "status": "erased"
      }
    },
    {
      "name": "Students.WithoutCounselor",
      "alternateName": "list/without-counselor",
      "filter": {
      }
    }
  ]
}
