{
  "model": "Institutes",
  "title": "Settings.Lists.Institute.Description",
  "subtitle": "EditItem",
  "settings": {
    "i18n": {
      "el": {
        "NameHelp": "Ορίστε το όνομα του στοιχείου",
        "AlternateNameHelp": "Ορίστε μία εναλλακτική ονομασία για αυτό το στοιχείο. Αυτό το όνομα θα χρησιμοποιηθεί για την ταυτοποίηση του στοιχείου",
        "IdentifierHelp": "Ο κωδικός αναφοράς μπορεί να χρησιμοποιηθεί από τρίτα συστήματα για την αντιστοίχιση του στοιχείου.",
        "LocalInstituteHelp":"Ένα ίδρυμα που ορίζεται ως τοπικό λαμβάνεται υπόψη στις διαδικασίες επεξεργασίας των στοιχείων του όπως τα προγράμματα σπουδών, τα μαθήματα του κτλ.",
        "UrlHelp": "Ορίστε την ηλεκτρονική διεύθυνση του στοιχείου",
        "NotesHelp": "Γράψτε μία σύντομη περιγραφή ή κάποιες σημειώσεις για αυτό το στοιχείο",
        "RegistrationPeriodsHelp": "Ορίστε τις περιόδους δηλώσεων εξαμήνου για το ίδρυμα. Οι περίοδοι αυτοί θα χρησιμοποιηθούν για τις δηλώσεις εξαμήνου των φοιτητών.",
        "CourseClassUrlTemplateHelp": "Ορίστε την μορφοποίηση των ηλεκτρονικών διευθύνσεων των τάξεων μαθημάτων πχ. https://example.com/classes/${id}",
        "ElearningTemplateUrlHelp": "Ορίστε την μορφοποίηση των ηλεκτρονικών διευθύνσεων διδασκαλίας μαθημάτων πχ. https://example.com/e-learning/classes/${id}",
        "UseDigitalSignatureHelp": "Ενεργοποιήστε την επιλογή αυτή για την χρήση ψηφιακών υπογραφών κατά την κατάθεση της βαθμολογίας από τους διδάσκοντες.",
        "ShowPendingGradesHelp": "Ενεργοποιήστε αυτή την επιλογή για την εμφάνιση των μη οριστικοποιημένων βαθμολογιών.",
        "ShowTeachingHoursHelp": "Ενεργοποιήστε αυτή την επιλογή για την εμφανισή των ωρών διδασκαλίας των μαθημάτων.",
        "OnlyForLocalInstituteHelp": "Το στοιχείο αυτό είναι διαθέσιμο μόνον για τοπικά ιδρύματα.",
        "NotYetImplemented": "Δεν υπάρχουν ακόμη διαθέσιμες πληροφορίες για αυτή την οντότητα.",
        "none": "Καμία (να μην μετονομαστεί ο χρήστης)",
        "department": "Του τμήματος του φοιτητή",
        "custom": "Ειδική μορφοποίηση",
        "Username format source": "Χρήση μορφοποίησης για μετονομασία χρήστη υποψηφίου",
        "The format cannot contain spaces.": "Η μορφοποίηση δεν πρέπει να περιέχει κενά.",
        "Username format": "Ειδική μορφοποίηση ον. χρηστών υποψηφίων",
        "Available student username format elements...": "Διαθέσιμα στοιχεία μορφοποίησης",
        "Percentile Ranking Calculation Method": "Μέθοδος υπολογισμού ποσοστιαίων βαθμολογιών",
        "Percentile Ranking Calculation Threshold": "Κατώτατο όριο δείγματος ποσοστιαίων βαθμολογιών",
        "Disable temporary OAuth2 server user after rename": "Απενεργοποίηση προσωρινών λογαριασμών (στον OAuth2 διακομιστή) μετά την αποδοχή αιτήσεων υποψηφίων",
        "Status when the absence limit is exceeded": "Κατάσταση κατά την υπέρβαση του ορίου απουσιών",
        "Set the status of the course registration when the absence limit is exceeded": "Ορίστε αν αλλάζει η κατάσταση της δήλωσης όταν ξεπεραστεί το όριο απουσιών",
        "Allow student user sharing": "Διαμοιρασμός χρηστών μεταξύ φοιτητών",
        "Enable this feature to allow a single user to be shared among different students": "Ενεργοποιήστε την επιλογή για να επιτρέψετε την σύνδεση ενός χρήστη με παραπάνω από έναν φοιτητή."
      },
      "en": {
        "NameHelp": "Set the name of this item",
        "AlternateNameHelp": "Set an alternate name for this item. This name will be used to identify items",
        "IdentifierHelp": "Set an identifier that is going to be used either by an external system or by internal processes.",
        "LocalInstituteHelp":"A local institute ",
        "UrlHelp": "Set the url of this item",
        "NotesHelp": "Write a short description or some notes for this item.",
        "RegistrationPeriodsHelp": "The following list contains settings about registration periods of each academic period. Registration periods will be used to validate student period registrations.",
        "CourseClassUrlTemplateHelp": "Set the format of a course class url e.g. https://example.com/classes/${id}",
        "ElearningTemplateUrlHelp": "Set the format of a course e-learning url e.g. https://example.com/e-learning/classes/${id}",
        "UseDigitalSignatureHelp": "Enable this feature to enforce the usage of digital signatures while teachers submitting student grades.",
        "ShowPendingGradesHelp": "Enable this feature if pending grades should be visible before final submission.",
        "ShowTeachingHoursHelp": "Enable this feature if subjects' teaching hours should be visible",
        "OnlyForLocalInstituteHelp": "This attribute is enabled only for local institutes.",
        "NotYetImplemented": "There is no information available yet for this entity.",
        "none": "None",
        "department": "Of the student's department",
        "custom": "Custom format"
      }
    }
  },
  "components": [
    {
      "label": "HTML",
      "tag": "h5",
      "className": "font-weight-normal mb-3",
      "content": "{{instance.t(form.subtitle)}}",
      "refreshOnChange": false,
      "tableView": false,
      "key": "subtitle",
      "type": "htmlelement",
      "input": false
    },
    {
      "label": "Tabs",
      "components": [
        {
          "label": "General",
          "key": "general",
          "components": [
            {
              "label": "Columns",
              "columns": [
                {
                  "components": [
                    {
                      "label": "name",
                      "description": "NameHelp",
                      "tableView": true,
                      "validate": {
                        "required": true
                      },
                      "key": "name",
                      "type": "textfield",
                      "input": true,
                      "hideOnChildrenHidden": false
                    },
                    {
                      "label": "identifier",
                      "description": "IdentifierHelp",
                      "tableView": true,
                      "key": "identifier",
                      "type": "textfield",
                      "input": true,
                      "hideOnChildrenHidden": false
                    },
                    {
                      "label": "localInstitute",
                      "description": "LocalInstituteHelp",
                      "tableView": false,
                      "key": "local",
                      "type": "checkbox",
                      "input": true,
                      "defaultValue": false,
                      "hideOnChildrenHidden": false
                    }
                  ],
                  "width": 6,
                  "offset": 0,
                  "push": 0,
                  "pull": 0,
                  "size": "md"
                },
                {
                  "components": [
                    {
                      "label": "alternateName",
                      "description": "AlternateNameHelp",
                      "tableView": true,
                      "key": "alternateName",
                      "type": "textfield",
                      "input": true,
                      "hideOnChildrenHidden": false
                    },
                    {
                      "label": "url",
                      "description": "UrlHelp",
                      "tableView": true,
                      "key": "url",
                      "type": "textfield",
                      "input": true,
                      "hideOnChildrenHidden": false
                    },
                    {
                      "label": "instituteType",
                      "labelPosition": "top",
                      "widget": "choicesjs",
                      "validate": {
                        "required": true
                      },

                      "dataSrc": "url",
                      "data": {
                        "url": "InstituteTypes",
                        "headers": []
                      },
                      "template": "<span class='d-block pr-5 text-truncate'>{{ item.name }}</span>",
                      "selectValues": "value",
                      "key": "instituteType",
                      "valueProperty": "id",
                      "lazyLoad": false,
                      "type": "select",
                      "input": true
                    }
                  ],
                  "width": 6,
                  "offset": 0,
                  "push": 0,
                  "pull": 0,
                  "size": "md"
                }
              ],
              "key": "columns",
              "type": "columns",
              "input": false,
              "tableView": false
            },
            {
              "label": "Notes",
              "placeholder": "NotesHelp",
              "autoExpand": false,
              "tableView": true,
              "key": "notes",
              "type": "textarea",
              "input": true
            }
          ]
        },
        {
          "label": "registrationPeriods",
          "components": [
              {
                  "label": "HTML",
                  "tag": "h5",
                  "className": "font-weight-normal text-secondary mb-3",
                  "content": "{{instance.t('OnlyForLocalInstituteHelp')}}",
                  "refreshOnChange": false,
                  "tableView": false,
                  "type": "htmlelement",
                  "input": false,
                  "conditional": {
                    "show": true,
                    "when": "local",
                    "eq": "false"
                  }
                },
            {
              "label": "RegistrationPeriodsHelp",
              "customClass": "border-0",
              "reorder": false,
              "addAnotherPosition": "bottom",
              "defaultOpen": false,
              "layoutFixed": false,
              "enableRowGroups": false,
              "initEmpty": true,
              "tableView": false,
              "addAnother": "AddItem",
              "key": "registrationPeriods",
              "type": "datagrid",
              "input": true,
              "conditional": {
                  "show": false,
                  "when": "local",
                  "eq": "false"
              },
              "components": [
                {
                  "label": "registrationPeriodStart",
                  "format": "yyyy-MM-dd",
                  "tableView": false,
                  "enableMinDateInput": false,
                  "datePicker": {
                      "disableWeekends": false,
                      "disableWeekdays": false
                  },
                  "enableMaxDateInput": false,
                  "enableTime": false,
                  "key": "registrationPeriodStart",
                  "type": "datetime",
                  "input": true,
                  "widget": {
                      "type": "calendar",
                      "displayInTimezone": "viewer",
                      "locale": "en",
                      "useLocaleSettings": true,
                      "allowInput": true,
                      "mode": "single",
                      "enableTime": false,
                      "noCalendar": false,
                      "format": "yyyy-MM-dd",
                      "hourIncrement": 1,
                      "minuteIncrement": 1,
                      "time_24hr": false,
                      "disableWeekends": false,
                      "disableWeekdays": false
                  }
              },
              {
                "label": "registrationPeriodEnd",
                "format": "yyyy-MM-dd",
                "tableView": false,
                "enableMinDateInput": false,
                "datePicker": {
                    "disableWeekends": false,
                    "disableWeekdays": false
                },
                "enableMaxDateInput": false,
                "enableTime": false,
                "key": "registrationPeriodEnd",
                "type": "datetime",
                "input": true,
                "widget": {
                    "type": "calendar",
                    "displayInTimezone": "viewer",
                    "locale": "en",
                    "useLocaleSettings": true,
                    "allowInput": true,
                    "mode": "single",
                    "enableTime": false,
                    "noCalendar": false,
                    "format": "yyyy-MM-dd",
                    "hourIncrement": 1,
                    "minuteIncrement": 1,
                    "time_24hr": false,
                    "disableWeekends": false,
                    "disableWeekdays": false
                }
            },
                {
                  "label": "academicYear",
                  "labelPosition": "top",
                  "widget": "html5",
                  "dataSrc": "url",
                  "data": {
                    "url": "AcademicYears/?$select=id,name,alternateName&$orderby=id desc",
                    "headers": []
                  },
                  "searchFields": ["id", "name"],
                  "template": "<span class='d-block pr-5 text-truncate'>{{ item.name }}</span>",
                  "selectValues": "value",
                  "key": "academicYear",
                  "valueProperty": "id",
                  "type": "select",
                  "lazyLoad": false,
                  "input": true,
                  "validate": {
                    "required": true
                  }
                },
                {
                  "label": "academicPeriod",
                  "labelPosition": "top",
                  "widget": "html5",
                  "dataSrc": "url",
                  "data": {
                    "url": "AcademicPeriods/?$select=id,name,alternateName&$orderby=id asc",
                    "headers": []
                  },
                  "searchFields": ["id", "name"],
                  "template": "<span class='d-block pr-5 text-truncate'>{{ item.name }}</span>",
                  "selectValues": "value",
                  "key": "academicPeriod",
                  "valueProperty": "id",
                  "type": "select",
                  "lazyLoad": false,
                  "input": true,
                  "validate": {
                    "required": true
                  }
                }
              ]
            }
          ]
        },
        {
          "label": "instituteConfiguration",
          "key": "configuration",
          "components": [
            {
              "label": "Columns",
              "columns": [
                {
                  "components": [
                      {
                          "label": "HTML",
                          "tag": "h5",
                          "className": "font-weight-normal text-secondary mb-3",
                          "content": "{{instance.t('OnlyForLocalInstituteHelp')}}",
                          "refreshOnChange": false,
                          "tableView": false,
                          "type": "htmlelement",
                          "input": false,
                          "conditional": {
                            "show": true,
                            "when": "local",
                            "eq": "false"
                          }
                        },
                    {
                      "label": "courseClassUrlTemplate",
                      "description": "CourseClassUrlTemplateHelp",
                      "tableView": true,
                      "key": "instituteConfiguration.courseClassUrlTemplate",
                      "type": "textfield",
                      "input": true,
                      "hideOnChildrenHidden": false,
                      "conditional": {
                          "show": false,
                          "when": "local",
                          "eq": "false"
                      }
                    },
                    {
                      "label": "Contact Person",
                      "tableView": true,
                      "key": "contactPerson1",
                      "type": "textfield",
                      "input": true,
                      "conditional": {
                        "show": false,
                        "when": "local",
                        "eq": "false"
                      }
                    },
                    {
                      "label": "useDigitalSignature",
                      "description": "UseDigitalSignatureHelp",
                      "tableView": false,
                      "key": "instituteConfiguration.useDigitalSignature",
                      "type": "checkbox",
                      "input": true,
                      "defaultValue": false,
                      "hideOnChildrenHidden": false,
                      "conditional": {
                          "show": false,
                          "when": "local",
                          "eq": "false"
                      }
                    },
                    {
                      "label": "Percentile Ranking Calculation Method",
                      "labelPosition": "top",
                      "widget": "choicejs",
                      "dataSrc": "url",
                      "data": {
                        "url": "PercentileRankCalculationMethods/?$select=id,name,alternateName&$orderby=id asc",
                        "headers": []
                      },
                      "searchFields": ["id", "name"],
                      "template": "<span class='d-block pr-5 text-truncate'>{{ item.name }}</span>",
                      "selectValues": "value",
                      "key": "instituteConfiguration.percentileRankMethod",
                      "valueProperty": "id",
                      "type": "select",
                      "lazyLoad": false,
                      "input": true,
                      "validate": {
                        "required": false
                      },
                      "conditional": {
                        "show": false,
                        "when": "local",
                        "eq": "false"
                      }
                    },
                    {
                      "label": "Username format source",
                      "labelPosition": "top",
                      "widget": "choicesjs",
                      "dataSrc": "url",
                      "data": {
                        "url": "UsernameFormatSources?$select=id, alternateName",
                        "headers": []
                      },
                      "template": "{{ item.alternateName }}",
                      "dataType": "object",
                      "idPath": "id",
                      "selectValues": "value",
                      "key": "instituteConfiguration.usernameFormatSource",
                      "type": "select",
                      "lazyLoad": false,
                      "input": true,
                      "validate": {
                        "required": false
                      },
                      "calculateValue": "value = (!!data.instituteConfiguration.usernameFormatSource && Object.keys(data.instituteConfiguration.usernameFormatSource).length === 0) ? null : value",
                      "conditional": {
                        "show": false,
                        "when": "local",
                        "eq": "false"
                      }
                    },
                    {
                      "label": "Username format",
                      "labelPosition": "top",
                      "widget": {
                        "type": "input"
                      },
                      "validate": {
                        "required": true,
                        "pattern": "^\\S*$",
                        "customMessage": "The format cannot contain spaces.",
                        "maxLength": 50
                      },
                      "customConditional": "show = (data?.instituteConfiguration?.usernameFormatSource?.alternateName === 'custom')",
                      "key": "instituteConfiguration.usernameFormat",
                      "type": "textfield",
                      "input": true
                    },
                    {
                      "label": "Available student username format elements...",
                      "action": "custom",
                      "customClass": "d-inline-block",
                      "showValidations": false,
                      "theme": "primary",
                      "tableView": false,
                      "key": "submit1",
                      "type": "button",
                      "custom": "$.get('assets/forms/Institutes/studentUsernameFormat.' + instance.i18next.language  + '.html', function( data ) { if ($('#studentUsernameFormat').length === 0) { $(document.body).append(data) }; $('#studentUsernameFormat').modal('show');});",
                      "input": true,
                      "customConditional": "show = (data?.instituteConfiguration?.usernameFormatSource?.alternateName === 'custom')"
                    },
                    {
                      "label": "Disable temporary OAuth2 server user after rename",
                      "tableView": false,
                      "key": "instituteConfiguration.disableExternalUserAfterRename",
                      "type": "checkbox",
                      "input": true,
                      "defaultValue": false,
                      "hideOnChildrenHidden": false,
                      "customConditional": "show = (data?.instituteConfiguration?.usernameFormatSource?.alternateName && data.instituteConfiguration.usernameFormatSource.alternateName !== 'none')"
                    }
                  ],
                  "width": 6,
                  "offset": 0,
                  "push": 0,
                  "pull": 0,
                  "size": "md"
                },
                {
                  "components": [
                    {
                      "label": "eLearningUrlTemplate",
                      "description": "ElearningTemplateUrlHelp",
                      "tableView": true,
                      "key": "instituteConfiguration.eLearningUrlTemplate",
                      "type": "textfield",
                      "input": true,
                      "hideOnChildrenHidden": false,
                      "conditional": {
                          "show": false,
                          "when": "local",
                          "eq": "false"
                      }
                    },
                    {
                      "label": "Alternative Contact Person",
                      "tableView": true,
                      "key": "contactPerson2",
                      "type": "textfield",
                      "input": true,
                      "conditional": {
                        "show": false,
                        "when": "local",
                        "eq": "false"
                      }
                    },
                    {
                      "label": "showPendingGrades",
                      "description": "ShowPendingGradesHelp",
                      "tableView": false,
                      "key": "instituteConfiguration.showPendingGrades",
                      "type": "checkbox",
                      "input": true,
                      "defaultValue": false,
                      "hideOnChildrenHidden": false,
                      "conditional": {
                          "show": false,
                          "when": "local",
                          "eq": "false"
                      }
                    },
                    {
                      "label": "showTeachingHours",
                      "description": "ShowTeachingHoursHelp",
                      "tableView": false,
                      "key": "instituteConfiguration.showTeachingHours",
                      "type": "checkbox",
                      "input": true,
                      "defaultValue": false,
                      "hideOnChildrenHidden": false,
                      "conditional": {
                          "show": false,
                          "when": "local",
                          "eq": "false"
                      }
                    },
                    {
                      "label": "Percentile Ranking Calculation Threshold",
                      "tableView": true,
                      "key": "instituteConfiguration.percentileRankItemThreshold",
                      "type": "textfield",
                      "input": true,
                      "validate": {
                        "required": false,
                        "integer": true
                      },
                      "conditional": {
                        "show": false,
                        "when": "local",
                        "eq": "false"
                      }
                    },
                    {
                      "label": "Allow student user sharing",
                      "description": "Enable this feature to allow a single user to be shared among different students",
                      "tableView": false,
                      "key": "instituteConfiguration.allowStudentUserSharing",
                      "type": "checkbox",
                      "input": true,
                      "defaultValue": false,
                      "hideOnChildrenHidden": false,
                      "conditional": {
                          "show": false,
                          "when": "local",
                          "eq": "false"
                      }
                    }
                  ],
                  "width": 6,
                  "offset": 0,
                  "push": 0,
                  "pull": 0,
                  "size": "md"
                },
                {
                  "components": [
                    {
                      "label": "Status when the absence limit is exceeded",
                      "labelPosition": "top",
                      "widget": "choicejs",
                      "dataSrc": "url",
                      "data": {
                        "url": "StudentClassStatuses/?$select=id,name&$orderby=id asc",
                        "headers": []
                      },
                      "searchFields": ["id", "name"],
                      "template": "<span class='d-block pr-5 text-truncate'>{{ item.name }}</span>",
                      "selectValues": "value",
                      "key": "instituteConfiguration.absenceClassStatus",
                      "valueProperty": "id",
                      "type": "select",
                      "lazyLoad": false,
                      "input": true,
                      "validate": {
                        "required": false
                      },
                      "conditional": {
                        "show": false,
                        "when": "local",
                        "eq": "false"
                      },
                      "description": "Set the status of the course registration when the absence limit is exceeded"
                    }
                  ],
                  "width": 6,
                  "offset": 0,
                  "push": 0,
                  "pull": 0,
                  "size": "md"
                }
              ],
              "key": "columns1",
              "type": "columns",
              "input": false,
              "tableView": false
            }
          ]
        },
        {
          "label": "locales",
          "key": "otherLanguages",
          "components": [
            {
              "label": "",
              "hideLabel": true,
              "key": "locales",
              "type": "datagrid",
              "disableAddingRemovingRows": true,
              "input": true,
              "customClass": "fix-panel-for-locales",
              "components": [
                {
                    "collapsible": false,
                    "hideLabel": true,
                    "key": "panel",
                    "type": "panel",
                    "title": "",
                    "hideTitle": true,
                    "input": false,
                    "tableView": false,
                    "components": [
                          {
                            "label": "Language",
                            "tableView": true,
                            "key": "inLanguage",
                            "disabled": "true",
                            "type": "textfield",
                            "input": true
                        },
                        {
                            "label": "Name",
                            "tableView": true,
                            "key": "name",
                            "type": "textfield",
                            "input": true
                        },
                        {
                          "label": "Contact Person",
                          "tableView": true,
                          "key": "contactPerson1",
                          "type": "textfield",
                          "input": true
                        },
                        {
                          "label": "Alternative Contact Person",
                          "tableView": true,
                          "key": "contactPerson2",
                          "type": "textfield",
                          "input": true
                        },
                        {
                            "label": "Notes",
                            "tableView": true,
                            "key": "notes",
                            "type": "textarea",
                            "input": true
                        }
                    ]
                }
            ]
            }
          ]
        }
      ],
      "key": "tabs",
      "type": "tabs",
      "input": false,
      "tableView": false
    },
    {
      "type": "button",
      "label": "Submit",
      "key": "submit",
      "disableOnInvalid": true,
      "input": true,
      "tableView": false
    }
  ]
}
