{
  "model": "StudentCounselors",
  "title": "Add student counselor",
  "settings": {
    "i18n": {
      "el": {
        "Add student counselor": "Ορισμός ακαδημαϊκού συμβούλου",
        "Specify the academic counselor": "Ορίστε τον ακαδημαϊκό σύμβουλο",
        "Counseling info": "Στοιχεία συμβουλευτικής",
        "Select the academic start year of the counseling": "Επιλέξτε το ακαδημαϊκό έτος έναρξης της συμβουλευτικής",
        "Select the academic start period of the counseling": "Επιλέξτε την περίοδο έναρξης της συμβουλευτικής",
        "Start year": "Έτος έναρξης",
        "Start period": "Περίοδος έναρξης",
        "Disable existing assignment": "Απενεργοποίηση υπαρχόντων αναθέσεων",
        "If any, disable existing academic counselors assignments for the selected students": "Αν υπάρχουν, απενεργοποίηση υπαρχόντων αναθέσεων ακαδημαϊκών συμβούλων για τους επιλεγμένους φοιτητές.",
        "Select the academic end year of the counseling": "Επιλέξτε το ακαδημαϊκό έτος λήξης της συμβουλευτικής",
        "Select the academic end period of the counseling": "Επιλέξτε την περίοδο λήξης της συμβουλευτικής",
        "End year": "Έτος λήξης",
        "End period": "Περίοδος λήξης"
      }
    }
  },
  "components": [
    {
      "key": "fieldset",
      "type": "fieldset",
      "input": false,
      "components": [
        {
          "columns": [
            { "components": [
            {
              "label": "Add student counselor",
              "widget": "choicesjs",
              "dataSrc": "url",
              "defaultValue": "",
              "labelPosition": "top",
              "data": {
                "values": [],
                "url": "/Instructors?$top={{limit}}&$skip={{skip}}&$select=id,familyName,givenName,department/name as department&$filter=indexof(familyName, '{{encodeURIComponent(search||'')}}') ge 0",
                "headers": []
              },
              "lazyLoad": true,
              "searchField": "search",
              "searchEnabled": true,
              "selectThreshold": 0.3,
              "limit": 50,
              "validate": {
                "required": true
              },
              "template": "{{ item.familyName }} {{ item.givenName }} - {{item.department}}",
              "key": "instructor",
              "dataType": "object",
              "idPath": "id",
              "type": "select",
              "selectValues": "value",
              "input": true
            }],
              "width": 12
            },
            {
              "components": [
                {
                  "label": "Start year",
                  "labelPosition": "top",
                  "dataSrc": "url",
                  "data": {
                    "url": "AcademicYears/?$top=100&$orderby=id desc&$filter=id ge {{data.latestInscriptionYear.id}}",
                    "headers": []
                  },
                  "validate": {
                    "required": true
                  },
                  "searchFields": ["id","name","alternateName"],
                  "template": "<span class='d-block pr-5 text-truncate'>{{ item.alternateName }}</span>",
                  "selectValues": "value",
                  "widget": "choicesjs",
                  "key": "fromYear",
                  "dataType": "object",
                  "idPath": "id",
                  "type": "select",
                  "input": true,
                  "searchEnabled": false,
                  "description": "Select the academic start year of the counseling"
                }
              ],
              "width": 4
            },

            {
              "components": [
                {
                  "label": "Start period",
                  "labelPosition": "top",
                  "dataSrc": "url",
                  "data": {
                    "url": "AcademicPeriods",
                    "headers": []
                  },
                  "validate": {
                    "required": true
                  },
                  "template": "<span class='d-block pr-5 text-truncate'>{{ item.name }}</span>",
                  "selectValues": "value",
                  "widget": "choicesjs",
                  "key": "fromPeriod",
                  "dataType": "object",
                  "idPath": "id",
                  "type": "select",
                  "input": true,
                  "searchEnabled": false,
                  "description": "Select the academic start period of the counseling"
                }
              ],
              "width": 4
            },
            {
              "components": [
                {
                  "label": "Start date",
                  "useLocaleSettings": true,
                  "tableView": false,
                  "enableMinDateInput": false,
                  "validate": {
                    "required": true
                  },
                  "datePicker": {
                    "disableWeekends": false,
                    "disableWeekdays": false
                  },
                  "enableMaxDateInput": false,
                  "enableTime": false,
                  "key": "startDate",
                  "type": "datetime",
                  "input": true,
                  "widget": {
                    "type": "calendar",
                    "displayInTimezone": "viewer",
                    "locale": "en",
                    "useLocaleSettings": true,
                    "allowInput": true,
                    "mode": "single",
                    "enableTime": false,
                    "noCalendar": false,
                    "format": "yyyy-MM-dd",
                    "hourIncrement": 1,
                    "minuteIncrement": 1,
                    "time_24hr": false,
                    "disableWeekends": false,
                    "disableWeekdays": false
                  }
                }
              ],
              "width": 4,
              "offset": 0,
              "push": 0,
              "pull": 0
            },
            {
              "components": [
                {
                  "type": "checkbox",
                  "label": "Disable existing assignment",
                  "description": "If any, disable existing academic counselors assignments for the selected students",
                  "key": "disableExisting",
                  "defaultValue": false,
                  "input": true
                }
            ],
              "width": 12
            },
            {
              "components": [
                {
                  "label": "End year",
                  "labelPosition": "top",
                  "dataSrc": "url",
                  "data": {
                    "url": "AcademicYears/?$top=100&$orderby=id desc&$filter=id ge {{data.latestInscriptionYear.id}}",
                    "headers": []
                  },
                  "searchFields": ["id", "name"],
                  "template": "<span class='d-block pr-5 text-truncate'>{{ item.name }}</span>",
                  "selectValues": "value",
                  "key": "toYear.id",
                  "valueProperty": "id",
                  "type": "select",
                  "lazyLoad": false,
                  "input": true,
                  "description": "Select the academic end year of the counseling",
                  "validate": {
                    "required": true
                  },
                  "conditional": {
                    "show": true,
                    "when": "disableExisting",
                    "eq": "true"
                  }
                }
              ],
              "width": 4
            },
            {
              "components": [
                {
                  "label": "End period",
                  "labelPosition": "top",
                  "dataSrc": "url",
                  "data": {
                    "url": "AcademicPeriods",
                    "headers": []
                  },
                  "validate": {
                    "required": true
                  },
                  "conditional": {
                    "show": true,
                    "when": "disableExisting",
                    "eq": "true"
                  },
                  "searchFields": ["id", "name"],
                  "template": "<span class='d-block pr-5 text-truncate'>{{ item.name }}</span>",
                  "selectValues": "value",
                  "key": "toPeriod.id",
                  "valueProperty": "id",
                  "type": "select",
                  "lazyLoad": false,
                  "input": true,
                  "description": "Select the academic end period of the counseling"

                }

              ],
              "width": 4
            },
            {
              "components": [
                {
                  "label": "End date",
                  "useLocaleSettings": true,
                  "tableView": false,
                  "enableMinDateInput": false,
                  "datePicker": {
                    "disableWeekends": false,
                    "disableWeekdays": false
                  },
                  "enableMaxDateInput": false,
                  "enableTime": false,
                  "key": "endDate",
                  "type": "datetime",
                  "input": true,
                  "validate": {
                  "required": true
                  },
                  "conditional": {
                    "show": true,
                    "when": "disableExisting",
                    "eq": "true"
                  },
                  "widget": {
                    "type": "calendar",
                    "displayInTimezone": "viewer",
                    "locale": "en",
                    "useLocaleSettings": true,
                    "allowInput": true,
                    "mode": "single",
                    "enableTime": false,
                    "noCalendar": false,
                    "format": "yyyy-MM-dd",
                    "hourIncrement": 1,
                    "minuteIncrement": 1,
                    "time_24hr": false,
                    "disableWeekends": false,
                    "disableWeekdays": false
                  }
                }
              ],
              "width": 4
            }
          ],
          "customClass": "text-dark",
          "type": "columns",
          "input": false
        }
      ]
    }

  ]
}
